{
    "name": "RandomFactorioThings",
    "version": "1.0.6",
    "title": "Random Factorio Things",
    "author": "JohnTheCoolingFan",
    "contact": "https://discord.gg/grHVhE2",
    "homepage": "https://www.patreon.com/JohnTheCoolingFan",
    "dependencies": [
        "base >= 0.17.0",
        "?PlutoniumEnergy",
        "?deadlock-beltboxes-loaders"
    ],
    "description": "Mod that continues idea of vanilla game.",
    "factorio_version": "0.17"
}
